Finished Epoch[1]: [Training Set] Train Loss Per Sample = 3.942008    EvalErr Per Sample [0]=4.9230547 [1]=0.96228278 [2]=0.017820816 [3]=0 Ave Learn Rate Per Sample = 0.003125000047  Epoch Time=6.5009999
Finished Epoch[1]: Criterion Node [ObjFcn.O] Per Sample = 3.942008
Finished Epoch[1]: Evaluation Node [CE1] Per Sample = 4.9230547
Finished Epoch[1]: Evaluation Node [FER1] Per Sample = 0.96228278
Finished Epoch[1]: Evaluation Node [CE2] Per Sample = 0.017820816
Finished Epoch[1]: Evaluation Node [FER2] Per Sample = 0
Finished Epoch[2]: [Training Set] Train Loss Per Sample = 3.8613315    EvalErr Per Sample [0]=4.8266635 [1]=0.95328057 [2]=1.5309175e-007 [3]=0 Ave Learn Rate Per Sample = 0.003125000047  Epoch Time=5.2350001
Finished Epoch[2]: Criterion Node [ObjFcn.O] Per Sample = 3.8613315
Finished Epoch[2]: Evaluation Node [CE1] Per Sample = 4.8266635
Finished Epoch[2]: Evaluation Node [FER1] Per Sample = 0.95328057
Finished Epoch[2]: Evaluation Node [CE2] Per Sample = 1.5309175e-007
Finished Epoch[2]: Evaluation Node [FER2] Per Sample = 0
Finished Epoch[3]: [Training Set] Train Loss Per Sample = 3.592231    EvalErr Per Sample [0]=4.4902878 [1]=0.91986728 [2]=1.3654688e-006 [3]=0 Ave Learn Rate Per Sample = 0.003125000047  Epoch Time=4.5159998
Finished Epoch[3]: Criterion Node [ObjFcn.O] Per Sample = 3.592231
Finished Epoch[3]: Evaluation Node [CE1] Per Sample = 4.4902878
Finished Epoch[3]: Evaluation Node [FER1] Per Sample = 0.91986728
Finished Epoch[3]: Evaluation Node [CE2] Per Sample = 1.3654688e-006
Finished Epoch[3]: Evaluation Node [FER2] Per Sample = 0
Finished Epoch[4]: [Training Set] Train Loss Per Sample = 3.317225    EvalErr Per Sample [0]=4.1465311 [1]=0.90123868 [2]=7.4484177e-007 [3]=0 Ave Learn Rate Per Sample = 0.003125000047  Epoch Time=4.6100001
Finished Epoch[4]: Criterion Node [ObjFcn.O] Per Sample = 3.317225
Finished Epoch[4]: Evaluation Node [CE1] Per Sample = 4.1465311
Finished Epoch[4]: Evaluation Node [FER1] Per Sample = 0.90123868
Finished Epoch[4]: Evaluation Node [CE2] Per Sample = 7.4484177e-007
Finished Epoch[4]: Evaluation Node [FER2] Per Sample = 0
Finished Epoch[5]: [Training Set] Train Loss Per Sample = 3.0248218    EvalErr Per Sample [0]=3.7810273 [1]=0.85977596 [2]=2.3329179e-007 [3]=0 Ave Learn Rate Per Sample = 0.003125000047  Epoch Time=6.3130002
Finished Epoch[5]: Criterion Node [ObjFcn.O] Per Sample = 3.0248218
Finished Epoch[5]: Evaluation Node [CE1] Per Sample = 3.7810273
Finished Epoch[5]: Evaluation Node [FER1] Per Sample = 0.85977596
Finished Epoch[5]: Evaluation Node [CE2] Per Sample = 2.3329179e-007
Finished Epoch[5]: Evaluation Node [FER2] Per Sample = 0
