Finished Epoch[1]: [Training Set] Train Loss Per Sample = 3.9423771    EvalErr Per Sample [0]=4.9227123 [1]=0.96231562 [2]=0.021024836 [3]=0.0084108161 Ave Learn Rate Per Sample = 0.003125000047  Epoch Time=1.6720001
Finished Epoch[1]: Criterion Node [ObjFcn.O] Per Sample = 3.9423771
Finished Epoch[1]: Evaluation Node [CE1] Per Sample = 4.9227123
Finished Epoch[1]: Evaluation Node [FER1] Per Sample = 0.96231562
Finished Epoch[1]: Evaluation Node [CE2] Per Sample = 0.021024836
Finished Epoch[1]: Evaluation Node [FER2] Per Sample = 0.0084108161
Finished Epoch[2]: [Training Set] Train Loss Per Sample = 3.8521581    EvalErr Per Sample [0]=4.8151979 [1]=0.95413482 [2]=4.126586e-008 [3]=0 Ave Learn Rate Per Sample = 0.003125000047  Epoch Time=1.391
Finished Epoch[2]: Criterion Node [ObjFcn.O] Per Sample = 3.8521581
Finished Epoch[2]: Evaluation Node [CE1] Per Sample = 4.8151979
Finished Epoch[2]: Evaluation Node [FER1] Per Sample = 0.95413482
Finished Epoch[2]: Evaluation Node [CE2] Per Sample = 4.126586e-008
Finished Epoch[2]: Evaluation Node [FER2] Per Sample = 0
Finished Epoch[3]: [Training Set] Train Loss Per Sample = 3.5730984    EvalErr Per Sample [0]=4.466373 [1]=0.91714036 [2]=3.638261e-007 [3]=0 Ave Learn Rate Per Sample = 0.003125000047  Epoch Time=1.375
Finished Epoch[3]: Criterion Node [ObjFcn.O] Per Sample = 3.5730984
Finished Epoch[3]: Evaluation Node [CE1] Per Sample = 4.466373
Finished Epoch[3]: Evaluation Node [FER1] Per Sample = 0.91714036
Finished Epoch[3]: Evaluation Node [CE2] Per Sample = 3.638261e-007
Finished Epoch[3]: Evaluation Node [FER2] Per Sample = 0
Finished Epoch[4]: [Training Set] Train Loss Per Sample = 3.3172503    EvalErr Per Sample [0]=4.1465631 [1]=0.90458983 [2]=1.3984375e-007 [3]=0 Ave Learn Rate Per Sample = 0.003125000047  Epoch Time=1.375
Finished Epoch[4]: Criterion Node [ObjFcn.O] Per Sample = 3.3172503
Finished Epoch[4]: Evaluation Node [CE1] Per Sample = 4.1465631
Finished Epoch[4]: Evaluation Node [FER1] Per Sample = 0.90458983
Finished Epoch[4]: Evaluation Node [CE2] Per Sample = 1.3984375e-007
Finished Epoch[4]: Evaluation Node [FER2] Per Sample = 0
Finished Epoch[5]: [Training Set] Train Loss Per Sample = 3.0483234    EvalErr Per Sample [0]=3.8104041 [1]=0.8601045 [2]=2.6917903e-008 [3]=0 Ave Learn Rate Per Sample = 0.003125000047  Epoch Time=1.375
Finished Epoch[5]: Criterion Node [ObjFcn.O] Per Sample = 3.0483234
Finished Epoch[5]: Evaluation Node [CE1] Per Sample = 3.8104041
Finished Epoch[5]: Evaluation Node [FER1] Per Sample = 0.8601045
Finished Epoch[5]: Evaluation Node [CE2] Per Sample = 2.6917903e-008
Finished Epoch[5]: Evaluation Node [FER2] Per Sample = 0
